<?xml version="1.0" encoding="UTF-8" standalone="no"?>
<!-- Created with Inkscape (http://www.inkscape.org/) -->

<svg
   xmlns:dc="http://purl.org/dc/elements/1.1/"
   xmlns:cc="http://creativecommons.org/ns#"
   xmlns:rdf="http://www.w3.org/1999/02/22-rdf-syntax-ns#"
   xmlns:svg="http://www.w3.org/2000/svg"
   xmlns="http://www.w3.org/2000/svg"
   xmlns:sodipodi="http://sodipodi.sourceforge.net/DTD/sodipodi-0.dtd"
   xmlns:inkscape="http://www.inkscape.org/namespaces/inkscape"
   width="152.0825mm"
   height="152.0825mm"
   viewBox="0 0 152.0825 152.0825"
   version="1.1"
   id="svg8"
   inkscape:version="0.92.5 (2060ec1f9f, 2020-04-08)"
   sodipodi:docname="closeicon.svg">
  <defs
     id="defs2" />
  <sodipodi:namedview
     id="base"
     pagecolor="#ffffff"
     bordercolor="#666666"
     borderopacity="1.0"
     inkscape:pageopacity="0.0"
     inkscape:pageshadow="2"
     inkscape:zoom="0.35"
     inkscape:cx="-184.02858"
     inkscape:cy="270.25716"
     inkscape:document-units="mm"
     inkscape:current-layer="layer1"
     showgrid="false"
     fit-margin-top="0"
     fit-margin-left="0"
     fit-margin-right="0"
     fit-margin-bottom="0"
     inkscape:window-width="1920"
     inkscape:window-height="1015"
     inkscape:window-x="0"
     inkscape:window-y="0"
     inkscape:window-maximized="1" />
  <metadata
     id="metadata5">
    <rdf:RDF>
      <cc:Work
         rdf:about="">
        <dc:format>image/svg+xml</dc:format>
        <dc:type
           rdf:resource="http://purl.org/dc/dcmitype/StillImage" />
        <dc:title></dc:title>
      </cc:Work>
    </rdf:RDF>
  </metadata>
  <g
     inkscape:label="Layer 1"
     inkscape:groupmode="layer"
     id="layer1"
     transform="translate(-26.012324,-68.256368)">
    <g
       id="layer1-3"
       inkscape:label="Layer 1"
       transform="translate(-16.630948,-13.60714)">
      <path
         inkscape:connector-curvature="0"
         id="path2683"
         d=""
         style="fill:#000000;stroke-width:0.26458332" />
      <g
         style="fill:#ffffff;fill-opacity:1"
         transform="translate(23.215294,7.0227943)"
         inkscape:label="Layer 1"
         id="layer1-2">
        <path
           style="fill:#ffffff;fill-opacity:1;stroke-width:0.26458332"
           d=""
           id="path2683-5"
           inkscape:connector-curvature="0" />
        <path
           style="fill:#ffffff;fill-opacity:1;stroke-width:0.2249741"
           d="m 27.357123,218.99171 c -6.181464,-6.18331 -7.929145,-8.05515 -7.929145,-8.49246 0,-0.4451 6.097531,-6.6586 29.527527,-30.08911 L 78.483041,150.88197 48.955505,121.35379 C 25.459348,97.857125 19.427978,91.710558 19.427978,91.262318 c 0,-0.819747 15.604094,-16.421604 16.423958,-16.421604 0.445113,0 6.658616,6.097532 30.089122,29.527536 l 29.528167,29.52753 29.528175,-29.52753 c 23.49667,-23.496162 29.64323,-29.527536 30.09148,-29.527536 0.81974,0 16.4216,15.604097 16.4216,16.423964 0,0.445107 -6.09753,6.658608 -29.52753,30.089112 l -29.52753,29.52818 29.52753,29.52817 c 23.49616,23.49667 29.52753,29.64324 29.52753,30.09148 0,0.81974 -15.6041,16.4216 -16.42396,16.4216 -0.44511,0 -6.65862,-6.09753 -30.08912,-29.52754 L 95.469225,167.86816 65.941058,197.39568 c -23.496668,23.49616 -29.643236,29.52754 -30.091478,29.52754 -0.440504,0 -2.291921,-1.72914 -8.492457,-7.93151 z"
           id="path2696"
           inkscape:connector-curvature="0" />
      </g>
    </g>
  </g>
  <style
     type="text/css"
     id="style238">
	.st0{fill:#FFFFFF;stroke:#000000;stroke-width:8;stroke-miterlimit:10;}
	.st1{fill:#FFFFFF;}
</style>
  <style
     type="text/css"
     id="style470">
	.st0{fill:#FFFFFF;stroke:#000000;stroke-width:8;stroke-miterlimit:10;}
	.st1{fill:#FFFFFF;}
</style>
  <style
     id="style238-3"
     type="text/css">
	.st0{fill:#FFFFFF;stroke:#000000;stroke-width:8;stroke-miterlimit:10;}
	.st1{fill:#FFFFFF;}
</style>
  <style
     id="style470-7"
     type="text/css">
	.st0{fill:#FFFFFF;stroke:#000000;stroke-width:8;stroke-miterlimit:10;}
	.st1{fill:#FFFFFF;}
</style>
  <style
     type="text/css"
     id="style4849">
	.st0{fill:#1D1D1D;}
	.st1{fill:#3B3B3B;}
	.st2{fill:#696969;}
	.st3{fill:#3A3A3A;}
	.st4{fill:#5A5A5A;}
	.st5{fill:#7E7E7E;}
	.st6{fill:#FEFEFE;stroke:#000000;stroke-width:8;stroke-miterlimit:10;}
</style>
  <style
     type="text/css"
     id="style238-0">
	.st0{fill:#FFFFFF;stroke:#000000;stroke-width:8;stroke-miterlimit:10;}
	.st1{fill:#FFFFFF;}
</style>
  <style
     type="text/css"
     id="style470-9">
	.st0{fill:#FFFFFF;stroke:#000000;stroke-width:8;stroke-miterlimit:10;}
	.st1{fill:#FFFFFF;}
</style>
  <style
     id="style238-9"
     type="text/css">
	.st0{fill:#FFFFFF;stroke:#000000;stroke-width:8;stroke-miterlimit:10;}
	.st1{fill:#FFFFFF;}
</style>
  <style
     id="style470-73"
     type="text/css">
	.st0{fill:#FFFFFF;stroke:#000000;stroke-width:8;stroke-miterlimit:10;}
	.st1{fill:#FFFFFF;}
</style>
  <style
     id="style238-1"
     type="text/css">
	.st0{fill:#FFFFFF;stroke:#000000;stroke-width:8;stroke-miterlimit:10;}
	.st1{fill:#FFFFFF;}
</style>
  <style
     id="style470-94"
     type="text/css">
	.st0{fill:#FFFFFF;stroke:#000000;stroke-width:8;stroke-miterlimit:10;}
	.st1{fill:#FFFFFF;}
</style>
  <style
     type="text/css"
     id="style238-3-7">
	.st0{fill:#FFFFFF;stroke:#000000;stroke-width:8;stroke-miterlimit:10;}
	.st1{fill:#FFFFFF;}
</style>
  <style
     type="text/css"
     id="style470-7-8">
	.st0{fill:#FFFFFF;stroke:#000000;stroke-width:8;stroke-miterlimit:10;}
	.st1{fill:#FFFFFF;}
</style>
  <style
     id="style4849-4"
     type="text/css">
	.st0{fill:#1D1D1D;}
	.st1{fill:#3B3B3B;}
	.st2{fill:#696969;}
	.st3{fill:#3A3A3A;}
	.st4{fill:#5A5A5A;}
	.st5{fill:#7E7E7E;}
	.st6{fill:#FEFEFE;stroke:#000000;stroke-width:8;stroke-miterlimit:10;}
</style>
  <style
     id="style238-0-5"
     type="text/css">
	.st0{fill:#FFFFFF;stroke:#000000;stroke-width:8;stroke-miterlimit:10;}
	.st1{fill:#FFFFFF;}
</style>
  <style
     id="style470-9-0"
     type="text/css">
	.st0{fill:#FFFFFF;stroke:#000000;stroke-width:8;stroke-miterlimit:10;}
	.st1{fill:#FFFFFF;}
</style>
  <style
     type="text/css"
     id="style238-9-3">
	.st0{fill:#FFFFFF;stroke:#000000;stroke-width:8;stroke-miterlimit:10;}
	.st1{fill:#FFFFFF;}
</style>
  <style
     type="text/css"
     id="style470-73-6">
	.st0{fill:#FFFFFF;stroke:#000000;stroke-width:8;stroke-miterlimit:10;}
	.st1{fill:#FFFFFF;}
</style>
  <style
     id="style238-06"
     type="text/css">
	.st0{fill:#FFFFFF;stroke:#000000;stroke-width:8;stroke-miterlimit:10;}
	.st1{fill:#FFFFFF;}
</style>
  <style
     id="style470-1"
     type="text/css">
	.st0{fill:#FFFFFF;stroke:#000000;stroke-width:8;stroke-miterlimit:10;}
	.st1{fill:#FFFFFF;}
</style>
  <style
     type="text/css"
     id="style238-3-5">
	.st0{fill:#FFFFFF;stroke:#000000;stroke-width:8;stroke-miterlimit:10;}
	.st1{fill:#FFFFFF;}
</style>
  <style
     type="text/css"
     id="style470-7-5">
	.st0{fill:#FFFFFF;stroke:#000000;stroke-width:8;stroke-miterlimit:10;}
	.st1{fill:#FFFFFF;}
</style>
  <style
     id="style4849-47"
     type="text/css">
	.st0{fill:#1D1D1D;}
	.st1{fill:#3B3B3B;}
	.st2{fill:#696969;}
	.st3{fill:#3A3A3A;}
	.st4{fill:#5A5A5A;}
	.st5{fill:#7E7E7E;}
	.st6{fill:#FEFEFE;stroke:#000000;stroke-width:8;stroke-miterlimit:10;}
</style>
  <style
     id="style238-0-6"
     type="text/css">
	.st0{fill:#FFFFFF;stroke:#000000;stroke-width:8;stroke-miterlimit:10;}
	.st1{fill:#FFFFFF;}
</style>
  <style
     id="style470-9-5"
     type="text/css">
	.st0{fill:#FFFFFF;stroke:#000000;stroke-width:8;stroke-miterlimit:10;}
	.st1{fill:#FFFFFF;}
</style>
  <style
     type="text/css"
     id="style238-9-6">
	.st0{fill:#FFFFFF;stroke:#000000;stroke-width:8;stroke-miterlimit:10;}
	.st1{fill:#FFFFFF;}
</style>
  <style
     type="text/css"
     id="style470-73-9">
	.st0{fill:#FFFFFF;stroke:#000000;stroke-width:8;stroke-miterlimit:10;}
	.st1{fill:#FFFFFF;}
</style>
  <style
     id="style238-4"
     type="text/css">
	.st0{fill:#FFFFFF;stroke:#000000;stroke-width:8;stroke-miterlimit:10;}
	.st1{fill:#FFFFFF;}
</style>
  <style
     id="style470-74"
     type="text/css">
	.st0{fill:#FFFFFF;stroke:#000000;stroke-width:8;stroke-miterlimit:10;}
	.st1{fill:#FFFFFF;}
</style>
  <style
     type="text/css"
     id="style238-3-4">
	.st0{fill:#FFFFFF;stroke:#000000;stroke-width:8;stroke-miterlimit:10;}
	.st1{fill:#FFFFFF;}
</style>
  <style
     type="text/css"
     id="style470-7-3">
	.st0{fill:#FFFFFF;stroke:#000000;stroke-width:8;stroke-miterlimit:10;}
	.st1{fill:#FFFFFF;}
</style>
  <style
     id="style4849-0"
     type="text/css">
	.st0{fill:#1D1D1D;}
	.st1{fill:#3B3B3B;}
	.st2{fill:#696969;}
	.st3{fill:#3A3A3A;}
	.st4{fill:#5A5A5A;}
	.st5{fill:#7E7E7E;}
	.st6{fill:#FEFEFE;stroke:#000000;stroke-width:8;stroke-miterlimit:10;}
</style>
  <style
     id="style238-0-7"
     type="text/css">
	.st0{fill:#FFFFFF;stroke:#000000;stroke-width:8;stroke-miterlimit:10;}
	.st1{fill:#FFFFFF;}
</style>
  <style
     id="style470-9-8"
     type="text/css">
	.st0{fill:#FFFFFF;stroke:#000000;stroke-width:8;stroke-miterlimit:10;}
	.st1{fill:#FFFFFF;}
</style>
  <style
     type="text/css"
     id="style238-9-68">
	.st0{fill:#FFFFFF;stroke:#000000;stroke-width:8;stroke-miterlimit:10;}
	.st1{fill:#FFFFFF;}
</style>
  <style
     type="text/css"
     id="style470-73-8">
	.st0{fill:#FFFFFF;stroke:#000000;stroke-width:8;stroke-miterlimit:10;}
	.st1{fill:#FFFFFF;}
</style>
  <style
     type="text/css"
     id="style238-1-4">
	.st0{fill:#FFFFFF;stroke:#000000;stroke-width:8;stroke-miterlimit:10;}
	.st1{fill:#FFFFFF;}
</style>
  <style
     type="text/css"
     id="style470-94-3">
	.st0{fill:#FFFFFF;stroke:#000000;stroke-width:8;stroke-miterlimit:10;}
	.st1{fill:#FFFFFF;}
</style>
  <style
     id="style238-3-7-1"
     type="text/css">
	.st0{fill:#FFFFFF;stroke:#000000;stroke-width:8;stroke-miterlimit:10;}
	.st1{fill:#FFFFFF;}
</style>
  <style
     id="style470-7-8-4"
     type="text/css">
	.st0{fill:#FFFFFF;stroke:#000000;stroke-width:8;stroke-miterlimit:10;}
	.st1{fill:#FFFFFF;}
</style>
  <style
     type="text/css"
     id="style4849-4-9">
	.st0{fill:#1D1D1D;}
	.st1{fill:#3B3B3B;}
	.st2{fill:#696969;}
	.st3{fill:#3A3A3A;}
	.st4{fill:#5A5A5A;}
	.st5{fill:#7E7E7E;}
	.st6{fill:#FEFEFE;stroke:#000000;stroke-width:8;stroke-miterlimit:10;}
</style>
  <style
     type="text/css"
     id="style238-0-5-2">
	.st0{fill:#FFFFFF;stroke:#000000;stroke-width:8;stroke-miterlimit:10;}
	.st1{fill:#FFFFFF;}
</style>
  <style
     type="text/css"
     id="style470-9-0-0">
	.st0{fill:#FFFFFF;stroke:#000000;stroke-width:8;stroke-miterlimit:10;}
	.st1{fill:#FFFFFF;}
</style>
  <style
     id="style238-9-3-6"
     type="text/css">
	.st0{fill:#FFFFFF;stroke:#000000;stroke-width:8;stroke-miterlimit:10;}
	.st1{fill:#FFFFFF;}
</style>
  <style
     id="style470-73-6-8"
     type="text/css">
	.st0{fill:#FFFFFF;stroke:#000000;stroke-width:8;stroke-miterlimit:10;}
	.st1{fill:#FFFFFF;}
</style>
  <style
     type="text/css"
     id="style238-06-9">
	.st0{fill:#FFFFFF;stroke:#000000;stroke-width:8;stroke-miterlimit:10;}
	.st1{fill:#FFFFFF;}
</style>
  <style
     type="text/css"
     id="style470-1-2">
	.st0{fill:#FFFFFF;stroke:#000000;stroke-width:8;stroke-miterlimit:10;}
	.st1{fill:#FFFFFF;}
</style>
  <style
     id="style238-3-5-6"
     type="text/css">
	.st0{fill:#FFFFFF;stroke:#000000;stroke-width:8;stroke-miterlimit:10;}
	.st1{fill:#FFFFFF;}
</style>
  <style
     id="style470-7-5-6"
     type="text/css">
	.st0{fill:#FFFFFF;stroke:#000000;stroke-width:8;stroke-miterlimit:10;}
	.st1{fill:#FFFFFF;}
</style>
  <style
     type="text/css"
     id="style4849-47-4">
	.st0{fill:#1D1D1D;}
	.st1{fill:#3B3B3B;}
	.st2{fill:#696969;}
	.st3{fill:#3A3A3A;}
	.st4{fill:#5A5A5A;}
	.st5{fill:#7E7E7E;}
	.st6{fill:#FEFEFE;stroke:#000000;stroke-width:8;stroke-miterlimit:10;}
</style>
  <style
     type="text/css"
     id="style238-0-6-9">
	.st0{fill:#FFFFFF;stroke:#000000;stroke-width:8;stroke-miterlimit:10;}
	.st1{fill:#FFFFFF;}
</style>
  <style
     type="text/css"
     id="style470-9-5-5">
	.st0{fill:#FFFFFF;stroke:#000000;stroke-width:8;stroke-miterlimit:10;}
	.st1{fill:#FFFFFF;}
</style>
  <style
     id="style238-9-6-0"
     type="text/css">
	.st0{fill:#FFFFFF;stroke:#000000;stroke-width:8;stroke-miterlimit:10;}
	.st1{fill:#FFFFFF;}
</style>
  <style
     id="style470-73-9-4"
     type="text/css">
	.st0{fill:#FFFFFF;stroke:#000000;stroke-width:8;stroke-miterlimit:10;}
	.st1{fill:#FFFFFF;}
</style>
</svg>
